"FieldName","Select","VariantEN","VariantES","VariantFR"
"Timestamp","yes","Timestamp","Timestamp","Timestamp"
"project_name",,"Project Name","Nombre del Proyecto","Nom du projet"
"abbreviation",,"Project Name Abbreviation / Acronym (if it has one)","Abreviación del nombre del proyecto o acrónimo (si lo tiene) ","Nom abrégé ou acronyme du projet (si il en a un)"
"project_leaders",,"Project Director(s)/Co-directors","Director/a o co-directores/as del proyecto ","Directeur/Directrice ou co-directeurs du projet"
"country",,"Country","País","Pays"
"location_region",,"Administrative Region","Región administrativa","Région administrative"
"project_location",,"Project Location","Localización del proyecto","Localisation du projet"
"seasons",,"Fieldwork Years (Seasons)","Años de trabajo de campo (campañas)","Années de travail de terrain (campagnes/missions)"
"fieldwork_status","yes","Fieldwork for this project is:","El trabajo de campo de este proyecto está:","Le travail du terrain de ce projet est:"
"study_status","yes","Study and publication for this project is:","El estudio y publicación de este proyecto está:","L’étude et publication de ce projet est:"
"bibliography_reference","yes","Single Best Reference ","Referencia bibliográfica única","Référence bibliographique unique:"
"bibliography_additional","yes","Additional Bibliography","Bibliografía adicional","Bibliographie additionnelle:"
"project_url",,"Do you have a project website? If so, please provide the URL.","¿Existe una página web sobre el proyecto? En caso afirmativo proporciona la dirección web.","Le projet dispose-t-il d’un site web ? Si oui, fournissez s’il vous plaît l’adresse du site."
"online_data_availability","yes","Is data for this project published online (in full or in part), in a format accessible to other researchers to search or download?","¿Existen datos accesibles para descargar o explorar sobre este proyecto publicados en Internet?","Est-ce que des données accessibles du projet, pour télécharger ou explorer, ont été publiées sur internet ?"
"opendata_url",,"If data is published online, what is the URL to access the data?","Si hay datos disponibles online, ¿podrías facilitar la dirección web para acceder a ellos?","S’il y a des données disponibles online, pourriez-vous fournir l’adresse web pour y accéder ?"
"survey_maximum_area",,"What was the overall project area of this survey (in sq km)?","¿Cuál era el área total de prospección (en km2)?","Quelle était l’aire totale de la surface de prospection (en km2)?*"
"landscape_features","yes","What types of landscape features are included in the survey area?","¿Qué tipo de paisajes se encontrarían incluidos en tu área de prospección? ","Quels types de paysages se rencontrent dans l’aire de prospection ?"
"survey_methods_orientation","yes","Which of the following best describes the methodology of this project?","¿Cuál de las siguientes preguntas describe mejor la metodología empleada en este proyecto? ","Parmi les phrases suivantes, laquelle décrit le mieux la méthodologie employée dans ce projet ?"
"survey_coverage_aims","yes","What was the approach to coverage of the survey within this project area, using its primary method of data collection?","¿Cuál fue la estrategia de cobertura territorial de la prospección para cubrir el área del proyecto, utilizando el método escogido de recopilación de datos?","Quelle a été la stratégie de couverture territoriale de la prospection, pour couvrir l’aire du projet, en utilisant la méthode choisie de collecte de données ?"
"survey_coverage_percent",,"Approximately what percentage of the total project area was subject to the primary method of detailed inspection and documentation (for example, the percentage of the total survey area that was covered by fieldwalking tracts or survey units, if these methods were used; alternatively, the estimated percentage of the survey area visited and explored for site documentation)?","Aproximadamente, ¿qué porcentaje del área total del proyecto estaba sujeto al método principal de inspección detallada y documentación (por ejemplo, el porcentaje del área total de la prospección que estaba cubierta por transectos o unidades de prospección, si se usaron estos métodos; alternativamente, estima el porcentaje del área del área de estudio visitada y explorada para la documentación de yacimientos)?","Approximativement, quel pourcentage de l’aire totale du projet était soumis à la méthode principale d’inspection et documentation détaillées ? (Par exemple, le pourcentage de l’aire totale de la prospection qui était couverte par des transects ou unités de prospection, si ces méthodes ont été utilisées ; alternativement, estimez le pourcentage de l’aire d’étude visitée et explorée pour la documentation de sites archéologiques)"
"survey_coverage_percent_explanation","yes","Please provide a short explanation of your coverage estimate, if you think that would be helpful.","Proporciona una breve explicación de la estimación de la cobertura de la prospección, si crees que puede ser útil.","Expliquez brièvement l’estimation de la couverture de la prospection, si vous le pensez nécessaire."
"survey_methods_map_visualisation","yes","Which of the following maps is closest to how your project would represent its study area and results as a whole?","¿Cuál de los siguientes mapas se asimila más a cómo tu proyecto representa el área de estudio y los resultados obtenidos?","Laquelle des cartes suivantes ressemble le plus à la manière dont votre projet représente l’aire d’étude et les résultats obtenus ?"
"survey_chronological_aims","yes","How would you describe the primary chronological interests of the project?","Cómo describirías el marco cronológico del proyecto?","Comment décririez-vous le cadre chronologique du projet ?"
"survey_chronological_periods","yes","Main period(s) of interest","Período(s) de interés principal","Période(s) d’intérêt principal"
"survey_methods_list","yes","What methods were used in this project as part of the primary field research strategy?","¿Qué métodos se emplearon en desarrollo del proyecto como parte de la estrategia de investigación del territorio?","Quelles méthodes ont été employées dans le développement du projet, pour développer la stratégie d’investigation du territoire ?"
"sponsorship","yes","Which of the following describe the sponsorship of the project and institutional circumstances in which fieldwork was carried out.","Cuál de las siguientes opciones describe mejor la financiación del proyecto y el contexto institucional en el que se desarrolló el proyecto.","Laquelle des options suivantes décrit le mieux le financement du projet et le contexte institutionnel dans lequel il s’est développé ?"
"data_followup",,"Thank you very much for taking part in this ""survey of surveys.”  Eventually, we would like to include more details about methods, coverage, visibility issues, and the specific aims of each project on the fieldwalker.org project pages to increase individual project visibility and help facilitate better cross-project interaction. Would you consider providing additional information about your project and are you willing to be contacted about this in the near future?","Muchas gracias por participar en esta encuesta. En el futuro nos gustaría añadir más detalles sobre métodos, extensión, problemas de visibilidad y los objetivos específicos de cada proyecto en la página web fieldwalker.org para incrementar la visibilidad de los proyectos incluidos y facilitar la interacción entre diferentes proyectos. ¿Considerarías participar proporcionando información adicional y ser contactado al respecto próximamente?","Merci beaucoup pour votre participation à cette enquête. Dans le futur, on souhaiterait rajouter des détails concernant les méthodes, l’extension, les problèmes de visibilité et les objectifs spécifiques de chaque projet dans le site web fieldwalker.org pour accroître la visibilité des projets inclus et faciliter l’interaction entre les différents projets. Seriez-vous prêt à participer, en fournissant des informations supplémentaires, et à être contacté dans ce but prochainement ?"
"contributor_name",,"Name (optional)","Nombre (opcional)","Nom (facultatif)"
"private_contact",,"Email address (optional)","Dirección de correo electrónico (opcional)","Adresse email (facultatif)"
"private_comments",,"Do you have any additional comments about your project or things you would like us to know in considering your responses above? (optional)","¿Tienes algún comentario adicional sobre tu proyecto o alguna información que quisieras compartir en relación a tus respuestas al cuestionario?","Avez-vous des commentaires supplémentaires par rapport à votre projet, ou une information que vous souhaiteriez partager par rapport à vos réponses à ce questionnaire ? (facultatif)"
